John C. Flournoy: Power to detect mediation and other problems
…
print(powerData)

## Source: local data frame [7,857 x 8]
## Groups: <by row>
## 
## # A tibble: 7,857 × 8
##        a     b     c  alab  blab  clab     N         ab
## *  <dbl> <dbl> <dbl> <chr> <chr> <chr> <dbl>      <dbl>
## 1    0.1   0.1   0.1 a=0.1 b=0.1 c=0.1    50 0.03226034
## 2    0.1   0.1   0.1 a=0.1 b=0.1 c=0.1    55 0.03284883
## 3    0.1   0.1   0.1 a=0.1 b=0.1 c=0.1    60 0.03344768
## 4    0.1   0.1   0.1 a=0.1 b=0.1 c=0.1    65 0.03405707
## 5    0.1   0.1   0.1 a=0.1 b=0.1 c=0.1    70 0.03467715
## 6    0.1   0.1   0.1 a=0.1 b=0.1 c=0.1    75 0.03530812
## 7    0.1   0.1   0.1 a=0.1 b=0.1 c=0.1    80 0.03595014
## 8    0.1   0.1   0.1 a=0.1 b=0.1 c=0.1    85 0.03660339
## 9    0.1   0.1   0.1 a=0.1 b=0.1 c=0.1    90 0.03726805
## 10   0.1   0.1   0.1 a=0.1 b=0.1 c=0.1    95 0.03794431
## # ... with 7,847 more rows
…
